{
  "href" : "https://api.spotify.com/v1/me/tracks?offset=50&limit=1",
  "items" : [ {
    "added_at" : "2017-01-31T17:58:59Z",
    "track" : {
      "album" : {
        "album_type" : "album",
        "artists" : [ {
          "external_urls" : {
            "spotify" : "https://open.spotify.com/artist/3ceOFG1q86nQVpJliylpgA"
          },
          "href" : "https://api.spotify.com/v1/artists/3ceOFG1q86nQVpJliylpgA",
          "id" : "3ceOFG1q86nQVpJliylpgA",
          "name" : "Submotion Orchestra",
          "type" : "artist",
          "uri" : "spotify:artist:3ceOFG1q86nQVpJliylpgA"
        } ],
        "available_markets" : [ "AD", "AR", "AT", "BE", "BG", "BO", "BR", "CA", "CH", "CL", "CO", "CR", "CY", "CZ", "DE", "DK", "DO", "EC", "EE", "ES", "FI", "FR", "GB", "GR", "GT", "HK", "HN", "HU", "ID", "IE", "IS", "IT", "LI", "LT", "LU", "LV", "MC", "MT", "MX", "MY", "NI", "NL", "NO", "PA", "PE", "PH", "PL", "PT", "PY", "SE", "SG", "SK", "SV", "TR", "TW", "US", "UY" ],
        "external_urls" : {
          "spotify" : "https://open.spotify.com/album/3W3ENDBQMJ9bD2qmxWI2f0"
        },
        "href" : "https://api.spotify.com/v1/albums/3W3ENDBQMJ9bD2qmxWI2f0",
        "id" : "3W3ENDBQMJ9bD2qmxWI2f0",
        "images" : [ {
          "height" : 640,
          "url" : "https://i.scdn.co/image/e386056a1a71c4f802459a1a888a43b6fa975087",
          "width" : 640
        }, {
          "height" : 300,
          "url" : "https://i.scdn.co/image/58a4481b094e748e08ee13a0582c5fd8b1f67761",
          "width" : 300
        }, {
          "height" : 64,
          "url" : "https://i.scdn.co/image/7fd695a6c6424729efe8b9ffd3a3802940cf29e8",
          "width" : 64
        } ],
        "name" : "Alium",
        "type" : "album",
        "uri" : "spotify:album:3W3ENDBQMJ9bD2qmxWI2f0"
      },
      "artists" : [ {
        "external_urls" : {
          "spotify" : "https://open.spotify.com/artist/3ceOFG1q86nQVpJliylpgA"
        },
        "href" : "https://api.spotify.com/v1/artists/3ceOFG1q86nQVpJliylpgA",
        "id" : "3ceOFG1q86nQVpJliylpgA",
        "name" : "Submotion Orchestra",
        "type" : "artist",
        "uri" : "spotify:artist:3ceOFG1q86nQVpJliylpgA"
      } ],
      "available_markets" : [ "AD", "AR", "AT", "BE", "BG", "BO", "BR", "CA", "CH", "CL", "CO", "CR", "CY", "CZ", "DE", "DK", "DO", "EC", "EE", "ES", "FI", "FR", "GB", "GR", "GT", "HK", "HN", "HU", "ID", "IE", "IS", "IT", "LI", "LT", "LU", "LV", "MC", "MT", "MX", "MY", "NI", "NL", "NO", "PA", "PE", "PH", "PL", "PT", "PY", "SE", "SG", "SK", "SV", "TR", "TW", "US", "UY" ],
      "disc_number" : 1,
      "duration_ms" : 196571,
      "explicit" : false,
      "external_ids" : {
        "isrc" : "GBCFB1405002"
      },
      "external_urls" : {
        "spotify" : "https://open.spotify.com/track/4FULAlQuDeDlv1FidteGv0"
      },
      "href" : "https://api.spotify.com/v1/tracks/4FULAlQuDeDlv1FidteGv0",
      "id" : "4FULAlQuDeDlv1FidteGv0",
      "name" : "Awakening",
      "popularity" : 34,
      "preview_url" : "https://p.scdn.co/mp3-preview/5af734ff59224eb26cc77045d72ccac37cbeeea7?cid=c093721d396d4c3f802e4a65bb653a68",
      "track_number" : 1,
      "type" : "track",
      "uri" : "spotify:track:4FULAlQuDeDlv1FidteGv0"
    }
  } ],
  "limit" : 1,
  "next" : "https://api.spotify.com/v1/me/tracks?offset=51&limit=1",
  "offset" : 50,
  "previous" : "https://api.spotify.com/v1/me/tracks?offset=49&limit=1",
  "total" : 1110
}
